ID,Nombre,Valor,Sistema Operativo
1,java.runtime.name,Java(TM) SE Runtime Environment,"SistemaOperativo{id=3, so=LINUX-DEBIAN}"
2,sun.boot.library.path,/usr/lib/jvm/jdk1.8.0_231/jre/lib/amd64,"SistemaOperativo{id=3, so=LINUX-DEBIAN}"
3,java.vm.version,25.231-b11,"SistemaOperativo{id=3, so=LINUX-DEBIAN}"
4,java.vm.vendor,Oracle Corporation,"SistemaOperativo{id=3, so=LINUX-DEBIAN}"
5,java.vendor.url,http://java.oracle.com/,"SistemaOperativo{id=3, so=LINUX-DEBIAN}"
6,path.separator,:,"SistemaOperativo{id=3, so=LINUX-DEBIAN}"
7,java.vm.name,Java HotSpot(TM) 64-Bit Server VM,"SistemaOperativo{id=3, so=LINUX-DEBIAN}"
8,file.encoding.pkg,sun.io,"SistemaOperativo{id=3, so=LINUX-DEBIAN}"
9,user.country,MX,"SistemaOperativo{id=3, so=LINUX-DEBIAN}"
10,sun.java.launcher,SUN_STANDARD,"SistemaOperativo{id=3, so=LINUX-DEBIAN}"
11,sun.os.patch.level,unknown,"SistemaOperativo{id=3, so=LINUX-DEBIAN}"
12,java.vm.specification.name,Java Virtual Machine Specification,"SistemaOperativo{id=3, so=LINUX-DEBIAN}"
13,user.dir,/home/robert-mtz/NetBeansProjects/propiedades,"SistemaOperativo{id=3, so=LINUX-DEBIAN}"
14,java.runtime.version,1.8.0_231-b11,"SistemaOperativo{id=3, so=LINUX-DEBIAN}"
15,java.awt.graphicsenv,sun.awt.X11GraphicsEnvironment,"SistemaOperativo{id=3, so=LINUX-DEBIAN}"
16,java.endorsed.dirs,/usr/lib/jvm/jdk1.8.0_231/jre/lib/endorsed,"SistemaOperativo{id=3, so=LINUX-DEBIAN}"
17,os.arch,amd64,"SistemaOperativo{id=3, so=LINUX-DEBIAN}"
18,java.io.tmpdir,/tmp,"SistemaOperativo{id=3, so=LINUX-DEBIAN}"
19,line.separator,,"SistemaOperativo{id=3, so=LINUX-DEBIAN}"
20,java.vm.specification.vendor,Oracle Corporation,"SistemaOperativo{id=3, so=LINUX-DEBIAN}"
21,os.name,Linux,"SistemaOperativo{id=3, so=LINUX-DEBIAN}"
22,sun.jnu.encoding,UTF-8,"SistemaOperativo{id=3, so=LINUX-DEBIAN}"
23,java.library.path,/usr/lib/jvm/jdk1.8.0_231/jre/lib/amd64:/usr/lib/jvm/jdk1.8.0_231/jre/lib/i386::/usr/java/packages/lib/amd64:/usr/lib64:/lib64:/lib:/usr/lib,"SistemaOperativo{id=3, so=LINUX-DEBIAN}"
24,java.specification.name,Java Platform API Specification,"SistemaOperativo{id=3, so=LINUX-DEBIAN}"
25,java.class.version,52.0,"SistemaOperativo{id=3, so=LINUX-DEBIAN}"
26,sun.management.compiler,HotSpot 64-Bit Tiered Compilers,"SistemaOperativo{id=3, so=LINUX-DEBIAN}"
27,os.version,4.19.0-6-amd64,"SistemaOperativo{id=3, so=LINUX-DEBIAN}"
28,user.home,/home/robert-mtz,"SistemaOperativo{id=3, so=LINUX-DEBIAN}"
29,user.timezone,,"SistemaOperativo{id=3, so=LINUX-DEBIAN}"
30,java.awt.printerjob,sun.print.PSPrinterJob,"SistemaOperativo{id=3, so=LINUX-DEBIAN}"
31,file.encoding,UTF-8,"SistemaOperativo{id=3, so=LINUX-DEBIAN}"
32,java.specification.version,1.8,"SistemaOperativo{id=3, so=LINUX-DEBIAN}"
33,user.name,robert-mtz,"SistemaOperativo{id=3, so=LINUX-DEBIAN}"
34,java.class.path,/home/robert-mtz/NetBeansProjects/propiedades/target/classes:/home/robert-mtz/.m2/repository/net/sourceforge/javacsv/javacsv/2.0/javacsv-2.0.jar,"SistemaOperativo{id=3, so=LINUX-DEBIAN}"
35,java.vm.specification.version,1.8,"SistemaOperativo{id=3, so=LINUX-DEBIAN}"
36,sun.arch.data.model,64,"SistemaOperativo{id=3, so=LINUX-DEBIAN}"
37,java.home,/usr/lib/jvm/jdk1.8.0_231/jre,"SistemaOperativo{id=3, so=LINUX-DEBIAN}"
38,sun.java.command,com.robertmtz.propiedades.controlador.App,"SistemaOperativo{id=3, so=LINUX-DEBIAN}"
39,java.specification.vendor,Oracle Corporation,"SistemaOperativo{id=3, so=LINUX-DEBIAN}"
40,user.language,es,"SistemaOperativo{id=3, so=LINUX-DEBIAN}"
41,awt.toolkit,sun.awt.X11.XToolkit,"SistemaOperativo{id=3, so=LINUX-DEBIAN}"
42,java.vm.info,mixed mode,"SistemaOperativo{id=3, so=LINUX-DEBIAN}"
43,java.version,1.8.0_231,"SistemaOperativo{id=3, so=LINUX-DEBIAN}"
44,java.ext.dirs,/usr/lib/jvm/jdk1.8.0_231/jre/lib/ext:/usr/java/packages/lib/ext,"SistemaOperativo{id=3, so=LINUX-DEBIAN}"
45,sun.boot.class.path,/usr/lib/jvm/jdk1.8.0_231/jre/lib/resources.jar:/usr/lib/jvm/jdk1.8.0_231/jre/lib/rt.jar:/usr/lib/jvm/jdk1.8.0_231/jre/lib/sunrsasign.jar:/usr/lib/jvm/jdk1.8.0_231/jre/lib/jsse.jar:/usr/lib/jvm/jdk1.8.0_231/jre/lib/jce.jar:/usr/lib/jvm/jdk1.8.0_231/jre/lib/charsets.jar:/usr/lib/jvm/jdk1.8.0_231/jre/lib/jfr.jar:/usr/lib/jvm/jdk1.8.0_231/jre/classes,"SistemaOperativo{id=3, so=LINUX-DEBIAN}"
46,java.vendor,Oracle Corporation,"SistemaOperativo{id=3, so=LINUX-DEBIAN}"
47,file.separator,/,"SistemaOperativo{id=3, so=LINUX-DEBIAN}"
48,java.vendor.url.bug,http://bugreport.sun.com/bugreport/,"SistemaOperativo{id=3, so=LINUX-DEBIAN}"
49,sun.cpu.endian,little,"SistemaOperativo{id=3, so=LINUX-DEBIAN}"
50,sun.io.unicode.encoding,UnicodeLittle,"SistemaOperativo{id=3, so=LINUX-DEBIAN}"
51,sun.desktop,gnome,"SistemaOperativo{id=3, so=LINUX-DEBIAN}"
52,sun.cpu.isalist,,"SistemaOperativo{id=3, so=LINUX-DEBIAN}"
